%YAML 1.1
%TAG !u! tag:unity3d.com,2011:
--- !u!1045 &1
EditorBuildSettings:
  m_ObjectHideFlags: 0
  serializedVersion: 2
  m_Scenes:
  - enabled: 1
    path: Assets/Scenes/MainMenu/MainMenu.unity
    guid: 23b61dda2dc596048859dacbeee55fd7
  - enabled: 1
    path: Assets/Scenes/LevelHandler/LevelHandler.unity
    guid: 588367ae8bf1e6a4f9d6c69c4a4eaabe
